Categories:Multimedia
License:GPL-3.0
Web Site:https://gitlab.com/axet/android-audio-recorder
Source Code:https://gitlab.com/axet/android-audio-recorder/tree/HEAD
Issue Tracker:https://gitlab.com/axet/android-audio-recorder/issues
Changelog:https://gitlab.com/axet/android-audio-recorder/tags

Auto Name:Audio Recorder
Summary:Record audio files
Description:
Audio recorder with custom recording folder, nice recording volume indicator,
recording notification, recording lock screen activity.
.

Repo Type:git
Repo:https://gitlab.com/axet/android-audio-recorder.git

Build:1.4.19,121
    disable=non-free
    commit=audiorecorder-1.4.19
    subdir=app
    gradle=yes

Build:1.4.26,128
    commit=audiorecorder-1.4.26
    subdir=app
    gradle=yes

Build:1.5.1,130
    commit=audiorecorder-1.5.1
    subdir=app
    gradle=yes

Build:1.5.2,131
    commit=audiorecorder-1.5.2
    subdir=app
    gradle=yes

Build:1.5.10,139
    commit=audiorecorder-1.5.10
    subdir=app
    gradle=yes

Build:1.5.11,140
    commit=audiorecorder-1.5.11
    subdir=app
    gradle=yes

Build:1.5.15,144
    commit=audiorecorder-1.5.15
    subdir=app
    gradle=yes

Build:1.5.17,147
    commit=audiorecorder-1.5.17
    subdir=app
    gradle=yes

Build:1.6.1,149
    commit=audiorecorder-1.6.1
    subdir=app
    gradle=yes

Build:1.7.1,151
    commit=audiorecorder-1.7.1
    subdir=app
    gradle=yes

Build:1.7.2,152
    commit=audiorecorder-1.7.2
    subdir=app
    gradle=yes

Build:1.7.4,154
    commit=audiorecorder-1.7.4
    subdir=app
    gradle=yes

Build:2.0.6,161
    commit=audiorecorder-2.0.6
    subdir=app
    gradle=yes

Build:2.0.7,162
    commit=audiorecorder-2.0.7
    subdir=app
    gradle=yes

Build:2.1.0,164
    commit=audiorecorder-2.1.0
    subdir=app
    gradle=yes

Build:3.0.4,169
    commit=audiorecorder-3.0.4
    subdir=app
    gradle=yes

Build:3.0.6,171
    commit=audiorecorder-3.0.6
    subdir=app
    gradle=yes

Build:3.0.9,174
    commit=audiorecorder-3.0.9
    subdir=app
    gradle=yes

Build:3.0.11,176
    commit=audiorecorder-3.0.11
    subdir=app
    gradle=yes

Build:3.0.14,179
    commit=audiorecorder-3.0.14
    subdir=app
    gradle=yes

Build:3.0.16,181
    commit=audiorecorder-3.0.16
    subdir=app
    gradle=yes

Build:3.0.24,189
    commit=audiorecorder-3.0.24
    subdir=app
    gradle=yes

Build:3.0.27,192
    commit=audiorecorder-3.0.27
    subdir=app
    gradle=yes

Build:3.0.28,193
    commit=audiorecorder-3.0.28
    subdir=app
    gradle=yes

Build:3.0.29,194
    commit=audiorecorder-3.0.29
    subdir=app
    gradle=yes

Build:3.0.31,196
    commit=audiorecorder-3.0.31
    subdir=app
    gradle=yes

Build:3.0.32,197
    commit=audiorecorder-3.0.32
    subdir=app
    gradle=yes

Build:3.0.34,199
    commit=audiorecorder-3.0.34
    subdir=app
    gradle=yes

Build:3.0.35,200
    commit=audiorecorder-3.0.35
    subdir=app
    gradle=yes

Build:3.0.37,202
    commit=audiorecorder-3.0.37
    subdir=app
    gradle=yes

Build:3.0.38,203
    commit=audiorecorder-3.0.38
    subdir=app
    gradle=yes

Build:3.0.40,206
    commit=audiorecorder-3.0.40
    subdir=app
    gradle=yes

Build:3.0.41,207
    commit=audiorecorder-3.0.41
    subdir=app
    gradle=universal

Build:3.0.42,208
    commit=audiorecorder-3.0.42
    subdir=app
    gradle=universal

Build:3.0.43,209
    commit=audiorecorder-3.0.43
    subdir=app
    gradle=universal

Build:3.0.47,213
    commit=audiorecorder-3.0.47
    subdir=app
    gradle=yes
    prebuild=sed -i -e '/variant.outputs.each/,/}$/d; /enable true/d' build.gradle

Build:3.0.51,217
    commit=audiorecorder-3.0.51
    subdir=app
    gradle=yes
    prebuild=sed -i -e '/variant.outputs.each/,/}$/d; /enable true/d' build.gradle

Build:3.0.53,219
    commit=audiorecorder-3.0.53
    subdir=app
    gradle=yes
    prebuild=sed -i -e '/variant.outputs.each/,/}$/d; /enable true/d' build.gradle

Build:3.0.54,220
    commit=audiorecorder-3.0.54
    subdir=app
    gradle=yes
    prebuild=sed -i -e '/variant.outputs.each/,/}$/d; /enable true/d' build.gradle

Build:3.0.55,221
    commit=audiorecorder-3.0.55
    subdir=app
    gradle=yes
    prebuild=sed -i -e '/variant.outputs.each/,/}$/d; /enable true/d' build.gradle

Auto Update Mode:Version audiorecorder-%v
Update Check Mode:Tags
Current Version:3.0.55
Current Version Code:221
